{
  "title": "La marmotte n°1",
  "guidelines": [
    "Surligne en <span class=\"blue\">bleu</span> tous les substituts de la marmotte."
  ],
  "chains": [{ "value": "marmotte", "label": "La marmotte", "color": "#3cb0e0" }],
  "sample": "Tout l'été, <span class=\"blue\">cette peluche vivante</span>, que l'on peut admirer en altitude, ...",
  "solution": { "marmotte": [ 0, 2, 16, 18, 20, 46, 90, 92, 94, 124, 126, 128, 144, 146, 148, 202, 204, 206 ] }
}
